[start]
20180109	1100	20300101	0	60700	999999	0	0	0	1	0	0	0	0	10000	0	0	0	0	0	0	0	0	0	
20160101	0	20300101	0	50700	999999	0	0	1	1	0	150	0	0	0	0	7500	0	2000	0	500	0	0	0	ここでしか手に入らないキャラクターが必ず出現！しかもレアキャラ以上確定!!
20180101	0	20300101	0	50700	999999	0	0	2	2	33	30	0	0	0	0	7500	0	2000	0	500	0	0	0		23	30	0	0	0	0	7500	0	2000	0	500	0	0	0	
20180101	0	20300101	0	50700	999999	0	0	3	2	33	75	0	0	0	0	7500	0	2000	0	500	0	0	0		23	75	0	0	0	0	7500	0	2000	0	500	0	0	0	
20180915	1100	20300101	0	70400	999999	0	0	1	4	-1	150	0	0	0	0	7500	0	2000	0	500	0	0	0		-1	150	0	0	0	0	7500	0	2000	0	500	0	0	0		-1	150	0	0	0	0	7500	0	2000	0	500	0	0	0		320	0	0	0	0	0	0	0	0	0	10000	0	0	0	超激レアのキャラクターが必ず１体手に入る「プラチナガチャ」！
20190429	1100	20190513	2359	80500	999999	0	0	0	3	-1	150	0	0	0	0	7500	0	2000	0	500	0	0	0		-1	150	0	0	0	0	7500	0	2000	0	500	0	0	0		25	0	0	0	0	0	7400	0	2100	0	500	0	0	0	【期間限定】ちびネコ達が手に入る特別仕様のイベントガチャ！★5月13日まで！
20190506	1100	20190513	1100	80500	999999	0	0	0	2	-1	150	0	0	0	0	7500	0	2000	0	500	0	0	0		5	0	0	2	500	0	7000	0	2000	0	500	0	0	0	高確率でキャッツアイが手に入るイベント限定特別ガチャ！　5月13日11時まで！
20190506	1100	20190508	1100	80500	999999	0	0	1	1	377	150	0	0	0	0	6970	0	2500	0	500	0	30	0	にゃんこ軍団秘蔵の超兵器達！シークレット新参戦！？★詳細はバナーをタップ!!
20190508	1100	20190510	1100	80500	999999	0	0	1	1	333	150	0	0	0	0	6970	0	2500	0	500	0	30	0	パワフルでキュートな電脳少女達！シークレット新参戦！？★詳細はバナーをタップ!!
20190510	1100	20190513	1100	80500	999999	0	0	1	1	380	150	0	0	0	0	6970	0	2500	0	500	1	30	0	個性的で愉快な精霊を仲間にしよう！シークレット新参戦！？★詳細はバナーをタップ!!
[end]
